<svg width="960" height="540" viewBox="0 0 960 540" xmlns="http://www.w3.org/2000/svg">
<text x="480" y="32" dy="0.76em" text-anchor="middle" font-family="sans-serif" font-size="16.129032258064516" opacity="1" fill="#000000">
fast
</text>
<text x="27" y="263" dy="0.76em" text-anchor="middle" font-family="sans-serif" font-size="9.67741935483871" opacity="1" fill="#000000" transform="rotate(270, 27, 263)">
Iterations (x 10^3)
</text>
<text x="480" y="513" dy="-0.5ex" text-anchor="middle" font-family="sans-serif" font-size="9.67741935483871" opacity="1" fill="#000000">
Average Time (ns)
</text>
<polyline fill="none" opacity="1" stroke="#000000" stroke-width="1" points="86,53 86,472 "/>
<text x="77" y="472" dy="0.5ex" text-anchor="end" font-family="sans-serif" font-size="9.67741935483871" opacity="1" fill="#000000">
0
</text>
<polyline fill="none" opacity="1" stroke="#000000" stroke-width="1" points="81,472 86,472 "/>
<text x="77" y="431" dy="0.5ex" text-anchor="end" font-family="sans-serif" font-size="9.67741935483871" opacity="1" fill="#000000">
50
</text>
<polyline fill="none" opacity="1" stroke="#000000" stroke-width="1" points="81,431 86,431 "/>
<text x="77" y="390" dy="0.5ex" text-anchor="end" font-family="sans-serif" font-size="9.67741935483871" opacity="1" fill="#000000">
100
</text>
<polyline fill="none" opacity="1" stroke="#000000" stroke-width="1" points="81,390 86,390 "/>
<text x="77" y="348" dy="0.5ex" text-anchor="end" font-family="sans-serif" font-size="9.67741935483871" opacity="1" fill="#000000">
150
</text>
<polyline fill="none" opacity="1" stroke="#000000" stroke-width="1" points="81,348 86,348 "/>
<text x="77" y="307" dy="0.5ex" text-anchor="end" font-family="sans-serif" font-size="9.67741935483871" opacity="1" fill="#000000">
200
</text>
<polyline fill="none" opacity="1" stroke="#000000" stroke-width="1" points="81,307 86,307 "/>
<text x="77" y="265" dy="0.5ex" text-anchor="end" font-family="sans-serif" font-size="9.67741935483871" opacity="1" fill="#000000">
250
</text>
<polyline fill="none" opacity="1" stroke="#000000" stroke-width="1" points="81,265 86,265 "/>
<text x="77" y="224" dy="0.5ex" text-anchor="end" font-family="sans-serif" font-size="9.67741935483871" opacity="1" fill="#000000">
300
</text>
<polyline fill="none" opacity="1" stroke="#000000" stroke-width="1" points="81,224 86,224 "/>
<text x="77" y="183" dy="0.5ex" text-anchor="end" font-family="sans-serif" font-size="9.67741935483871" opacity="1" fill="#000000">
350
</text>
<polyline fill="none" opacity="1" stroke="#000000" stroke-width="1" points="81,183 86,183 "/>
<text x="77" y="141" dy="0.5ex" text-anchor="end" font-family="sans-serif" font-size="9.67741935483871" opacity="1" fill="#000000">
400
</text>
<polyline fill="none" opacity="1" stroke="#000000" stroke-width="1" points="81,141 86,141 "/>
<text x="77" y="100" dy="0.5ex" text-anchor="end" font-family="sans-serif" font-size="9.67741935483871" opacity="1" fill="#000000">
450
</text>
<polyline fill="none" opacity="1" stroke="#000000" stroke-width="1" points="81,100 86,100 "/>
<text x="77" y="58" dy="0.5ex" text-anchor="end" font-family="sans-serif" font-size="9.67741935483871" opacity="1" fill="#000000">
500
</text>
<polyline fill="none" opacity="1" stroke="#000000" stroke-width="1" points="81,58 86,58 "/>
<polyline fill="none" opacity="1" stroke="#000000" stroke-width="1" points="87,473 872,473 "/>
<text x="104" y="483" dy="0.76em" text-anchor="middle" font-family="sans-serif" font-size="9.67741935483871" opacity="1" fill="#000000">
150
</text>
<polyline fill="none" opacity="1" stroke="#000000" stroke-width="1" points="104,473 104,478 "/>
<text x="268" y="483" dy="0.76em" text-anchor="middle" font-family="sans-serif" font-size="9.67741935483871" opacity="1" fill="#000000">
200
</text>
<polyline fill="none" opacity="1" stroke="#000000" stroke-width="1" points="268,473 268,478 "/>
<text x="431" y="483" dy="0.76em" text-anchor="middle" font-family="sans-serif" font-size="9.67741935483871" opacity="1" fill="#000000">
250
</text>
<polyline fill="none" opacity="1" stroke="#000000" stroke-width="1" points="431,473 431,478 "/>
<text x="594" y="483" dy="0.76em" text-anchor="middle" font-family="sans-serif" font-size="9.67741935483871" opacity="1" fill="#000000">
300
</text>
<polyline fill="none" opacity="1" stroke="#000000" stroke-width="1" points="594,473 594,478 "/>
<text x="757" y="483" dy="0.76em" text-anchor="middle" font-family="sans-serif" font-size="9.67741935483871" opacity="1" fill="#000000">
350
</text>
<polyline fill="none" opacity="1" stroke="#000000" stroke-width="1" points="757,473 757,478 "/>
<text x="933" y="263" dy="0.76em" text-anchor="middle" font-family="sans-serif" font-size="9.67741935483871" opacity="1" fill="#000000" transform="rotate(90, 933, 263)">
Density (a.u.)
</text>
<polyline fill="none" opacity="1" stroke="#000000" stroke-width="1" points="873,53 873,473 "/>
<text x="883" y="473" dy="0.5ex" text-anchor="start" font-family="sans-serif" font-size="9.67741935483871" opacity="1" fill="#000000">
0
</text>
<polyline fill="none" opacity="1" stroke="#000000" stroke-width="1" points="873,473 878,473 "/>
<text x="883" y="432" dy="0.5ex" text-anchor="start" font-family="sans-serif" font-size="9.67741935483871" opacity="1" fill="#000000">
0.002
</text>
<polyline fill="none" opacity="1" stroke="#000000" stroke-width="1" points="873,432 878,432 "/>
<text x="883" y="390" dy="0.5ex" text-anchor="start" font-family="sans-serif" font-size="9.67741935483871" opacity="1" fill="#000000">
0.004
</text>
<polyline fill="none" opacity="1" stroke="#000000" stroke-width="1" points="873,390 878,390 "/>
<text x="883" y="348" dy="0.5ex" text-anchor="start" font-family="sans-serif" font-size="9.67741935483871" opacity="1" fill="#000000">
0.006
</text>
<polyline fill="none" opacity="1" stroke="#000000" stroke-width="1" points="873,348 878,348 "/>
<text x="883" y="306" dy="0.5ex" text-anchor="start" font-family="sans-serif" font-size="9.67741935483871" opacity="1" fill="#000000">
0.008
</text>
<polyline fill="none" opacity="1" stroke="#000000" stroke-width="1" points="873,306 878,306 "/>
<text x="883" y="264" dy="0.5ex" text-anchor="start" font-family="sans-serif" font-size="9.67741935483871" opacity="1" fill="#000000">
0.01
</text>
<polyline fill="none" opacity="1" stroke="#000000" stroke-width="1" points="873,264 878,264 "/>
<text x="883" y="223" dy="0.5ex" text-anchor="start" font-family="sans-serif" font-size="9.67741935483871" opacity="1" fill="#000000">
0.012
</text>
<polyline fill="none" opacity="1" stroke="#000000" stroke-width="1" points="873,223 878,223 "/>
<text x="883" y="181" dy="0.5ex" text-anchor="start" font-family="sans-serif" font-size="9.67741935483871" opacity="1" fill="#000000">
0.014
</text>
<polyline fill="none" opacity="1" stroke="#000000" stroke-width="1" points="873,181 878,181 "/>
<text x="883" y="139" dy="0.5ex" text-anchor="start" font-family="sans-serif" font-size="9.67741935483871" opacity="1" fill="#000000">
0.016
</text>
<polyline fill="none" opacity="1" stroke="#000000" stroke-width="1" points="873,139 878,139 "/>
<text x="883" y="97" dy="0.5ex" text-anchor="start" font-family="sans-serif" font-size="9.67741935483871" opacity="1" fill="#000000">
0.018
</text>
<polyline fill="none" opacity="1" stroke="#000000" stroke-width="1" points="873,97 878,97 "/>
<text x="883" y="55" dy="0.5ex" text-anchor="start" font-family="sans-serif" font-size="9.67741935483871" opacity="1" fill="#000000">
0.02
</text>
<polyline fill="none" opacity="1" stroke="#000000" stroke-width="1" points="873,55 878,55 "/>
<polygon opacity="0.5" fill="#1F78B4" points="87,473 88,473 90,473 91,473 93,473 94,473 96,473 98,473 99,472 101,472 102,472 104,472 105,472 107,472 109,471 110,471 112,471 113,470 115,470 116,469 118,469 120,468 121,468 123,467 124,466 126,465 127,465 129,464 131,462 132,461 134,460 135,459 137,457 138,456 140,454 142,452 143,450 145,448 146,446 148,443 150,441 151,438 153,435 154,432 156,429 157,426 159,422 161,418 162,414 164,410 165,406 167,402 168,397 170,392 172,387 173,382 175,377 176,371 178,366 179,360 181,354 183,348 184,342 186,336 187,329 189,323 190,316 192,310 194,303 195,297 197,290 198,284 200,277 201,270 203,264 205,257 206,251 208,245 209,238 211,232 213,226 214,220 216,215 217,209 219,204 220,198 222,193 224,188 225,183 227,179 228,174 230,170 231,166 233,162 235,158 236,154 238,150 239,147 241,144 242,140 244,137 246,134 247,131 249,128 250,125 252,122 253,120 255,117 257,114 258,111 260,108 261,106 263,103 264,100 266,97 268,95 269,92 271,89 272,86 274,84 276,81 277,78 279,76 280,73 282,70 283,68 285,66 287,64 288,62 290,60 291,58 293,57 294,56 296,55 298,54 299,54 301,53 302,54 304,54 305,55 307,57 309,58 310,60 312,63 313,66 315,69 316,73 318,77 320,81 321,86 323,91 324,97 326,103 327,109 329,116 331,123 332,130 334,138 335,145 337,153 339,161 340,170 342,178 343,187 345,196 346,205 348,213 350,222 351,231 353,240 354,249 356,258 357,266 359,275 361,283 362,292 364,300 365,308 367,315 368,323 370,330 372,337 373,344 375,350 376,357 378,363 379,369 381,374 383,379 384,384 386,389 387,394 389,398 391,402 392,406 394,409 395,413 397,416 398,419 400,421 402,424 403,426 405,429 406,431 408,432 409,434 411,436 413,437 414,439 416,440 417,441 419,442 420,443 422,444 424,445 425,445 427,446 428,447 430,447 431,448 433,448 435,449 436,449 438,450 439,450 441,451 442,451 444,451 446,452 447,452 449,452 450,453 452,453 454,454 455,454 457,454 458,455 460,455 461,455 463,456 465,456 466,456 468,457 469,457 471,457 472,458 474,458 476,458 477,458 479,459 480,459 482,459 483,459 485,460 487,460 488,460 490,460 491,460 493,460 494,460 496,460 498,461 499,461 501,461 502,461 504,461 505,461 507,461 509,461 510,460 512,460 513,460 515,460 517,460 518,460 520,460 521,460 523,460 524,460 526,459 528,459 529,459 531,459 532,459 534,459 535,459 537,459 539,459 540,459 542,459 543,459 545,459 546,459 548,459 550,459 551,459 553,459 554,460 556,460 557,460 559,460 561,460 562,460 564,461 565,461 567,461 568,462 570,462 572,462 573,462 575,463 576,463 578,463 580,464 581,464 583,464 584,465 586,465 587,466 589,466 591,466 592,467 594,467 595,467 597,468 598,468 600,468 602,468 603,469 605,469 606,469 608,470 609,470 611,470 613,470 614,471 616,471 617,471 619,471 620,471 622,472 624,472 625,472 627,472 628,472 630,472 632,472 633,472 635,473 636,473 638,473 639,473 641,473 643,473 644,473 646,473 647,473 649,473 650,473 652,473 654,473 655,473 657,473 658,473 660,473 661,473 663,473 665,473 666,473 668,473 669,473 671,473 672,473 674,473 676,473 677,473 679,473 680,473 682,473 683,473 685,473 687,473 688,473 690,473 691,473 693,473 695,473 696,473 698,473 699,473 701,473 702,473 704,472 706,472 707,472 709,472 710,472 712,472 713,472 715,472 717,471 718,471 720,471 721,471 723,471 724,470 726,470 728,470 729,470 731,470 732,469 734,469 735,469 737,469 739,468 740,468 742,468 743,468 745,468 746,467 748,467 750,467 751,467 753,467 754,466 756,466 758,466 759,466 761,466 762,466 764,466 765,466 767,465 769,465 770,465 772,465 773,465 775,465 776,465 778,466 780,466 781,466 783,466 784,466 786,466 787,466 789,466 791,467 792,467 794,467 795,467 797,467 798,468 800,468 802,468 803,468 805,469 806,469 808,469 809,469 811,469 813,470 814,470 816,470 817,470 819,471 821,471 822,471 824,471 825,471 827,471 828,472 830,472 832,472 833,472 835,472 836,472 838,472 839,472 841,473 843,473 844,473 846,473 847,473 849,473 850,473 852,473 854,473 855,473 857,473 858,473 860,473 861,473 863,473 865,473 866,473 868,473 869,473 871,473 873,473 873,473 87,473 "/>
<polyline fill="none" opacity="1" stroke="#1F78B4" stroke-width="1" points="294,472 294,53 "/>
<polyline fill="none" opacity="1" stroke="#FF7F00" stroke-width="1" points="120,472 120,53 "/>
<polyline fill="none" opacity="1" stroke="#FF7F00" stroke-width="1" points="443,472 443,53 "/>
<polyline fill="none" opacity="1" stroke="#E31A1C" stroke-width="1" points="87,472 87,53 "/>
<polyline fill="none" opacity="1" stroke="#E31A1C" stroke-width="1" points="564,472 564,53 "/>
<circle cx="771" cy="468" r="3" opacity="1" fill="#1F78B4" stroke="none" stroke-width="1"/>
<circle cx="527" cy="464" r="3" opacity="1" fill="#1F78B4" stroke="none" stroke-width="1"/>
<circle cx="563" cy="460" r="3" opacity="1" fill="#1F78B4" stroke="none" stroke-width="1"/>
<circle cx="462" cy="141" r="3" opacity="1" fill="#1F78B4" stroke="none" stroke-width="1"/>
<circle cx="527" cy="464" r="3" opacity="1" fill="#FF7F00" stroke="none" stroke-width="1"/>
<circle cx="563" cy="460" r="3" opacity="1" fill="#FF7F00" stroke="none" stroke-width="1"/>
<circle cx="462" cy="141" r="3" opacity="1" fill="#FF7F00" stroke="none" stroke-width="1"/>
<circle cx="771" cy="468" r="3" opacity="1" fill="#E31A1C" stroke="none" stroke-width="1"/>
<text x="776" y="228" dy="0.76em" text-anchor="start" font-family="sans-serif" font-size="9.67741935483871" opacity="1" fill="#000000">
PDF
</text>
<text x="776" y="243" dy="0.76em" text-anchor="start" font-family="sans-serif" font-size="9.67741935483871" opacity="1" fill="#000000">
Mean
</text>
<text x="776" y="258" dy="0.76em" text-anchor="start" font-family="sans-serif" font-size="9.67741935483871" opacity="1" fill="#000000">
&quot;Clean&quot; sample
</text>
<text x="776" y="273" dy="0.76em" text-anchor="start" font-family="sans-serif" font-size="9.67741935483871" opacity="1" fill="#000000">
Mild outliers
</text>
<text x="776" y="288" dy="0.76em" text-anchor="start" font-family="sans-serif" font-size="9.67741935483871" opacity="1" fill="#000000">
Severe outliers
</text>
<rect x="746" y="228" width="20" height="10" opacity="0.5" fill="#1F78B4" stroke="none"/>
<polyline fill="none" opacity="1" stroke="#1F78B4" stroke-width="1" points="746,248 766,248 "/>
<circle cx="756" cy="263" r="3" opacity="1" fill="#1F78B4" stroke="none" stroke-width="1"/>
<circle cx="756" cy="278" r="3" opacity="1" fill="#FF7F00" stroke="none" stroke-width="1"/>
<circle cx="756" cy="293" r="3" opacity="1" fill="#E31A1C" stroke="none" stroke-width="1"/>
</svg>
